digraph G {
  rankdir=TB;
  node [style="filled", ];
  13 [label="Decl x", fillcolor="#FFEFD5", shape=box, ];
  14 [label="In1", fillcolor="#6495ED", shape=box, ];
  15 [label="Decl y", fillcolor="#FFEFD5", shape=box, ];
  16 [label="In2", fillcolor="#6495ED", shape=box, ];
  17 [label="Decl z", fillcolor="#FFEFD5", shape=box, ];
  18 [label="In3", fillcolor="#6495ED", shape=box, ];
  19 [label="Decl r", fillcolor="#FFEFD5", shape=box, ];
  21 [label="In1", fillcolor="#FFCA6E", shape=box, ];
  22 [label="In2", fillcolor="#FFCA6E", shape=box, ];
  23 [label="Out(G.b)", fillcolor="#FFCA6E", shape=box, ];
  24 [label="OutRet", fillcolor="#FFCA6E", shape=box, ];
  25 [label="A = G.a;", fillcolor="#CCCCCC", shape=box, ];
  26 [label="B = G.b;", fillcolor="#CCCCCC", shape=box, ];
  27 [label="return r;", fillcolor="#CCCCCC", shape=box, ];
  28 [label="OutRet", fillcolor="#90EE90", shape=box, ];
  29 [label="In(G.a)", fillcolor="#6495ED", shape=box, ];
  
  subgraph cluster_Call5 { label="Call5 : /*@ assert Eva: signed_overflow: -2147483648 \226\137\164 x + y; */\n/*@ assert Eva: signed_overflow: x + y \226\137\164 2147483647; */\nint r = f(x + y,z);";
                           fillcolor="#B38B4D"; style="filled"; 24;23;22;21;
     };
  
  edge [dir=back, ];
  14 -> 13 [color="#000000", style="dotted", ];
  13 -> 14 [color="#000000", style="dotted", ];
  16 -> 15 [color="#000000", style="dotted", ];
  15 -> 16 [color="#000000", style="dotted", ];
  18 -> 17 [color="#000000", style="dotted", ];
  17 -> 18 [color="#000000", style="dotted", ];
  13 -> 21 [color="#0000FF", ];
  14 -> 21 [color="#0000FF", ];
  15 -> 21 [color="#0000FF", ];
  16 -> 21 [color="#0000FF", ];
  17 -> 22 [color="#0000FF", ];
  18 -> 22 [color="#0000FF", ];
  22 -> 23 [color="#0000FF", ];
  19 -> 24 [color="#000000", style="dotted", ];
  21 -> 24 [color="#0000FF", ];
  29 -> 24 [color="#0000FF", ];
  29 -> 25 [color="#0000FF", ];
  23 -> 26 [label="G.b", color="#0000FF", ];
  19 -> 27 [color="#0000FF", ];
  24 -> 27 [color="#0000FF", ];
  27 -> 28 [color="#0000FF", ];
  
  }