memexec-misses-summaries	analyze		1
memexec-misses-summaries	main		1
memexec-misses-widenings	analyze		1
memexec-misses-widenings	main		1
memexec-misses-widenings-kf	analyze		1
memexec-misses-widenings-kf	main		1
memexec-saved-widenings	analyze		1
memexec-saved-widenings	main		1
partitioning-index-misses			48
max-widenings	analyze	source/main.c:10	1
iterations	analyze	source/main.c:10	4
