memexec-hits-widenings	analyze		1
memexec-hits-widenings	main		1
memexec-misses-summaries	analyze		1
memexec-misses-summaries	main		1
memexec-saved-widenings	analyze		1
memexec-saved-widenings	main		1
partitioning-index-misses			21
widening-reuse	analyze	source/main.c:10	1
iterations	analyze	source/main.c:10	1
widening-import-hits	analyze	source/main.c:10	1
