digraph G {
  fontname="fixed";
  node [shape=circle, ];
  cp1 [label=<y: 6<br />z: 7>, shape=invtriangle, ];
  cp2 [label=<x: 3<br />y: 6<br />z: 7>, ];
  cp3 [label=<y: 6<br />z: 7>, ];
  cp4 [label=<y: 6<br />z: 7<br />b: 3>, ];
  cp5 [label=<⊥>, style="dashed", ];
  cp6 [label=<y: 6<br />z: 7>, ];
  cp7 [label=<y: 6<br />z: 7>, ];
  cp8 [label=<y: 6<br />z: 7>, ];
  cp9 [label=<y: 6<br />z: 7>, ];
  cp10 [label=<y: 3>, ];
  cp11 [label=<x: 3<br />y: 6<br />z: 7>, ];
  cp12 [label=<y: 6<br />z: 7>, ];
  cp13 [label=<x: 3<br />y: 6<br />z: 7>, ];
  cp14 [label=<y: 6<br />z: 7<br />a: 1<br />i: 0>, ];
  cp15 [label=<y: 6<br />z: 7>, ];
  cp16 [label=<y: 6<br />z: 7<br />a: 1>, ];
  cp17 [label=< >, ];
  cp18 [label=<x: 3<br />y: 6<br />z: 7>, ];
  cp19 [label=<x: 3<br />y: 6<br />z: 7>, ];
  cp20 [label=<y: 6<br />z: 7<br />b: 3>, ];
  cp21 [label=<y: 6<br />z: 7>, ];
  cp22 [label=<y: 6<br />z: 7>, ];
  cp23 [label=<y: 6<br />z: 7<br />b: 3>, ];
  cp24 [label=<y: 6>, ];
  cp25 [label=<y: 6<br />z: 7>, ];
  cp26 [label=<y: 6<br />z: 7>, ];
  cp27 [label=<y: 6<br />z: 7>, ];
  cp28 [label=<y: 6<br />z: 7>, ];
  cp29 [label=< >, ];
  cp30 [label=<y: 6<br />z: 7<br />b: 3>, ];
  cp31 [label=<y: 6<br />z: 7<br />a: 1>, ];
  cp32 [label=<y: 6<br />z: 7>, ];
  cp33 [label=<y: 6<br />z: 7<br />b: 3>, ];
  
  subgraph cluster_1 { cp33;cp30;cp28;cp27;cp23;cp21;cp20;cp12;cp4;cp1;
     };
  
  cp1 -> cp28 [label=<Enter >, ];
  cp2 -> cp19 [label=<Exit >, ];
  cp3 -> cp9 [label=<Enter >, ];
  cp4 -> cp20 [label=<a ++;>, ];
  cp5 -> cp8 [label=<Exit i>, style="dashed", ];
  cp6 -> cp8 [label=<Exit >, ];
  cp7 -> cp15 [label=< >, ];
  cp8 -> cp3 [label=<x != 3>, ];
  cp8 -> cp11 [label=<!(x != 3)>, ];
  cp9 -> cp2 [label=<x = 3;>, ];
  cp10 -> cp24 [label=<y *= 2;>, ];
  cp11 -> cp19 [label=< >, ];
  cp12 -> cp21 [label=<Enter b, c>, ];
  cp14 -> cp1 [label=< >, ];
  cp15 -> cp25 [label=<Exit i>, ];
  cp16 -> cp14 [label=<int i = 0;>, ];
  cp17 -> cp29 [label=<Enter y, z, w, a>, ];
  cp18 -> cp13 [label=<Exit y, z, w, a>, ];
  cp19 -> cp18 [label=<return>, ];
  cp20 -> cp33 [label=<Exit b, c>, ];
  cp21 -> cp30 [label=<int b = 3;>, ];
  cp22 -> cp32 [label=<int w = y + x;>, ];
  cp23 -> cp1 [constraint=false, label=<Exit >, ];
  cp24 -> cp22 [label=<int z = y + 1;>, ];
  cp25 -> cp6 [label=<Exit >, ];
  cp26 -> cp7 [label=<Enter >, ];
  cp27 -> cp12 [label=< >, ];
  cp28 -> cp27 [label=<i &lt; 10>, ];
  cp28 -> cp26 [label=<!(i &lt; 10)>, ];
  cp29 -> cp10 [label=<int y = 3;>, ];
  cp30 -> cp4 [label=<int c = i + 1;>, ];
  cp31 -> cp16 [label=<Enter i>, ];
  cp32 -> cp31 [label=<int a = 1;>, ];
  cp33 -> cp23 [label=<i ++;>, ];
  
  }