digraph G {
  cp2 [label=<z>, shape=box, fillcolor="#FFBBBB", color="#FF0000",
       style="filled,bold", ];
  cp3 [label=<g>, shape=box, fillcolor="#FFBBBB", color="#FF0000",
       style="filled", ];
  cp5 [label=<x>, shape=box, fillcolor="#FFBBBB", color="#FF0000",
       style="filled", ];
  cp7 [label=<y>, shape=box, fillcolor="#FFBBBB", color="#FF0000",
       style="filled", ];
  
  subgraph cluster_cs_1 { label=<main>; cp7;cp5;cp2;
     };
  subgraph cluster_file_1 { label=<global.i>; cp3;
     };
  
  cp3 -> cp2;
  cp5 -> cp2;
  cp5 -> cp7;
  cp7 -> cp3;
  
  }