digraph G {
  cp2 [label=<x>, shape=box, fillcolor="#AACCFF", color="#88AAFF",
       style="filled,bold", ];
  cp3 [label=<0.0f>, shape=ellipse, ];
  cp5 [label=<x>, shape=box, fillcolor="#AACCFF", color="#88AAFF",
       style="filled", ];
  cp8 [label=<x>, shape=box, fillcolor="#AACCFF", color="#88AAFF",
       style="filled", ];
  
  subgraph cluster_cs_1 { label=<main>; cp3;cp2;
    subgraph cluster_cs_4 { label=<f2>; cp8;
       };
     };
  
  cp2 -> cp2;
  cp2 -> cp5;
  cp2 -> cp8;
  cp3 -> cp2;
  cp5 -> cp2;
  cp8 -> cp2;
  
  }