***** make-wrapper recommendations *****

*** recommendation #1 ***

1. Found recursive call at:
   stack: large_name_to_force_line_break_in_stack_msg :: make-wrapper.c:17 <-
          large_name_to_force_line_break_in_stack_msg :: make-wrapper.c:21 <-
          rec :: make-wrapper.c:26 <-
          main

Consider patching, stubbing or adding an ACSL specification to the recursive call, then re-run the analysis.

*** recommendation #2 ***
2. Found function with missing specification: large_name_to_force_line_break_in_stack_msg
   Looking for files defining it...
Add the following file to the list of sources to be parsed:
  make-wrapper.c
